<?xml version="1.0" encoding="UTF-8" standalone="no"?>
<svg
   xmlns:dc="http://purl.org/dc/elements/1.1/"
   xmlns:cc="http://creativecommons.org/ns#"
   xmlns:rdf="http://www.w3.org/1999/02/22-rdf-syntax-ns#"
   xmlns:svg="http://www.w3.org/2000/svg"
   xmlns="http://www.w3.org/2000/svg"
   xmlns:sodipodi="http://sodipodi.sourceforge.net/DTD/sodipodi-0.dtd"
   xmlns:inkscape="http://www.inkscape.org/namespaces/inkscape"
   width="400.67294"
   height="252.44196"
   viewBox="0 0 400.67294 252.44196"
   version="1.1"
   id="svg32"
   sodipodi:docname="logo.svg"
   style="fill:none"
   inkscape:version="0.92.2 5c3e80d, 2017-08-06">
  <metadata
     id="metadata38">
    <rdf:RDF>
      <cc:Work
         rdf:about="">
        <dc:format>image/svg+xml</dc:format>
        <dc:type
           rdf:resource="http://purl.org/dc/dcmitype/StillImage" />
        <dc:title></dc:title>
      </cc:Work>
    </rdf:RDF>
  </metadata>
  <defs
     id="defs36" />
  <style
     type="text/css"
     id="style993">@import url(&quot;https://fonts.googleapis.com/css?family=Open+Sans:400,400i,700,700i|Roboto+Condensed&quot;);</style>
  <sodipodi:namedview
     pagecolor="#ffffff"
     bordercolor="#666666"
     borderopacity="1"
     objecttolerance="10"
     gridtolerance="10"
     guidetolerance="10"
     inkscape:pageopacity="0"
     inkscape:pageshadow="2"
     inkscape:window-width="1680"
     inkscape:window-height="956"
     id="namedview34"
     showgrid="false"
     inkscape:zoom="1.8575"
     inkscape:cx="146.29879"
     inkscape:cy="156.93136"
     inkscape:window-x="0"
     inkscape:window-y="1"
     inkscape:window-maximized="1"
     inkscape:current-layer="svg32"
     fit-margin-top="0"
     fit-margin-left="0"
     fit-margin-right="0"
     fit-margin-bottom="0" />
  <g
     id="g989"
     transform="matrix(1.3355765,0,0,1.3355765,2.0999848e-7,-169.68832)">
    <g
       transform="matrix(0.55136783,0,0,0.55136783,77.495183,24.498073)"
       id="g144">
      <path
         d="m 3.95862,186 c 12.7665,21.0561 33.6976,27.8435 54.2329,27.9426 23.7517,0.0991 44.9797,-7.8279 55.0741,-21.55147 l -6.086,-4.21121 C 99.50952,199.9713 80.21132,209.5828 55.27202,210.2269 37.11192,210.6728 18.35802,206.0156 3.95862,186 Z"
         id="path10"
         inkscape:connector-curvature="0"
         style="fill:#622f8e" />
      <path
         d="m 5.09671,202.1017 c 2.2762,2.92308 20.38679,21.3038 45.72189,25.7627 C 42.3571,227.914 20.9311,224.4954 0,207.45242 Z"
         id="path12"
         inkscape:connector-curvature="0"
         style="fill:#622f8e" />
      <path
         d="M 51.16501,226.7744 47.5033,290.438 h 7.32343 z"
         id="path14"
         inkscape:connector-curvature="0"
         style="fill:#622f8e" />
      <path
         d="m 112.5729,206.0156 c -12.1233,16.5971 -44.53436,19.5202 -52.105197,20.1643 l 0.395857,2.3781 -1.23706,-0.0496 3.85964,63.2178 3.36482,-59.7002 c 28.79884,-5.9948 42.30764,-19.12383 45.72194,-26.0104 z"
         id="path16"
         inkscape:connector-curvature="0"
         style="fill:#622f8e" />
      <path
         d="m 90.6521,287.9113 v -15.6062 c 0,-5.4498 -2.5236,-8.2243 -7.6203,-8.2243 -2.07829,0 -3.85967,0.6441 -5.39363,1.8827 -1.53396,1.2386 -2.32568,2.9231 -2.32568,5.0039 v 16.8448 H 72.7394 v -46.3233 h 2.57309 v 23.9296 c 1.53396,-2.5267 4.10706,-3.8149 7.66981,-3.8149 6.7791,0 10.1934,3.4681 10.1934,10.4537 v 15.854 z"
         id="path18"
         inkscape:connector-curvature="0"
         style="fill:#622f8e" />
      <path
         d="m 122.5189,287.8618 v -4.4589 c -2.7216,3.2699 -6.1359,4.9048 -10.3419,4.9048 -3.76066,0 -6.87806,-1.2881 -9.45116,-3.8149 -2.57309,-2.5762 -3.85964,-5.747 -3.85964,-9.5123 0,-3.76537 1.28655,-6.93616 3.81016,-9.46289 2.57309,-2.57627 5.73998,-3.86441 9.50064,-3.86441 4.1071,0 7.5709,1.63495 10.3419,4.90483 v -4.50848 h 2.5731 v 25.86175 h -2.5731 z m -2.7216,-20.56062 c -2.1277,-2.13037 -4.6513,-3.22034 -7.6203,-3.22034 -3.0184,0 -5.54203,1.04042 -7.6203,3.12125 -2.12775,2.13038 -3.16689,4.70661 -3.16689,7.72881 0,2.9726 1.03914,5.4994 3.16689,7.6297 2.12775,2.1304 4.6514,3.2204 7.6203,3.2204 3.0185,0 5.5421,-1.0404 7.6203,-3.1213 2.1278,-2.1304 3.1669,-4.7066 3.1669,-7.7288 0.0495,-2.9726 -1.0391,-5.49934 -3.1669,-7.62972 z"
         id="path20"
         inkscape:connector-curvature="0"
         style="fill:#622f8e" />
      <path
         d="m 137.36402,300 h -2.87 L 141.1742,285.4837 130.288,262 h 2.77103 l 9.64907,20.412 9.5007,-20.412 h 2.8205 z"
         id="path22"
         inkscape:connector-curvature="0"
         style="fill:#622f8e" />
      <path
         d="m 177.8904,287.8618 v -15.4576 c 0,-5.44983 -2.4741,-8.22427 -7.37291,-8.22427 -2.42465,0 -4.25551,0.69361 -5.49257,2.13038 -1.28655,1.43677 -1.92982,3.36896 -1.92982,5.84619 v 15.7053 H 160.522 V 262 h 2.5731 v 3.12126 c 1.18758,-2.27901 3.66171,-3.46806 7.42239,-3.46806 3.21641,0 5.69051,0.94133 7.37291,2.77445 1.7319,1.83311 2.5731,4.40938 2.5731,7.72885 v 15.7053 z"
         id="path24"
         inkscape:connector-curvature="0"
         style="fill:#622f8e" />
      <path
         d="m 210.3997,287.8618 v -4.4589 c -2.7216,3.2699 -6.1359,4.9048 -10.3419,4.9048 -3.76066,0 -6.87805,-1.2881 -9.45115,-3.8149 -2.57309,-2.5762 -3.85965,-5.747 -3.85965,-9.5123 0,-3.76537 1.28655,-6.93616 3.81017,-9.46289 2.57309,-2.57627 5.73997,-3.86441 9.50063,-3.86441 4.1071,0 7.5709,1.63495 10.3419,4.90483 v -4.50848 h 2.5731 v 25.86175 h -2.5731 z m -2.6721,-20.56062 c -2.1277,-2.13037 -4.6513,-3.22034 -7.6203,-3.22034 -3.0184,0 -5.54205,1.04042 -7.62032,3.12125 -2.12775,2.13038 -3.16688,4.70661 -3.16688,7.72881 0,2.9726 1.03913,5.4994 3.16688,7.6297 2.12776,2.1304 4.65132,3.2204 7.62032,3.2204 3.0184,0 5.542,-1.0404 7.6203,-3.1213 2.1278,-2.1304 3.1669,-4.7066 3.1669,-7.7288 0,-2.9726 -1.0391,-5.49934 -3.1669,-7.62972 z"
         id="path26"
         inkscape:connector-curvature="0"
         style="fill:#622f8e" />
      <path
         d="m 232.8157,265.81483 c -0.6433,-0.49544 -1.3855,-0.89179 -2.1277,-1.18906 -0.74226,-0.29726 -1.53399,-0.44589 -2.3752,-0.44589 -0.69275,0 -1.38551,0.19818 -1.9793,0.64407 -0.64328,0.4459 -1.18758,0.99087 -1.63292,1.63494 -0.44534,0.64407 -0.84121,1.38723 -1.08862,2.17992 -0.24742,0.7927 -0.39586,1.53585 -0.39586,2.17992 v 17.04307 h -2.5731 v -25.86184 h 2.5731 v 3.5176 c 0.54431,-0.94133 1.23706,-1.83312 2.12775,-2.62581 0.89068,-0.7927 1.83086,-1.18905 2.87,-1.18905 1.28654,0 2.37516,0.14863 3.16685,0.44589 0.8412,0.29726 1.7814,0.7927 2.8205,1.5854 z"
         id="path28"
         inkscape:connector-curvature="0"
         style="fill:#622f8e" />
      <path
         d="m 260.4267,287.8618 v -4.4589 c -2.7216,3.2699 -6.1359,4.9048 -10.3419,4.9048 -3.76066,0 -6.87807,-1.2881 -9.45116,-3.8149 -2.5731,-2.5762 -3.85964,-5.747 -3.85964,-9.5123 0,-3.76537 1.28655,-6.93616 3.81017,-9.46289 2.57309,-2.57627 5.73997,-3.86441 9.50063,-3.86441 4.1071,0 7.5709,1.63495 10.3419,4.90483 v -4.50848 h 2.5731 v 25.86175 h -2.5731 z m -2.6721,-20.56062 c -2.1277,-2.13037 -4.6513,-3.22034 -7.6203,-3.22034 -3.0184,0 -5.54205,1.04042 -7.62032,3.12125 -2.12775,2.13038 -3.16688,4.70661 -3.16688,7.72881 0,2.9726 1.03913,5.4994 3.16688,7.6297 2.12776,2.1304 4.65132,3.2204 7.62032,3.2204 3.0184,0 5.5421,-1.0404 7.6203,-3.1213 2.1278,-2.1304 3.1669,-4.7066 3.1669,-7.7288 0,-2.9726 -1.0391,-5.49934 -3.1669,-7.62972 z"
         id="path30"
         inkscape:connector-curvature="0"
         style="fill:#622f8e" />
    </g>
    <path
       sodipodi:nodetypes="ccccc"
       inkscape:connector-curvature="0"
       id="rect146"
       d="M -1.5723433e-7,194.84909 H 270.51724 L 300,281.74565 H -1.5723433e-7 Z"
       style="fill:#786296;fill-opacity:1;stroke-width:1.14307368" />
    <g
       aria-label="1808"
       style="font-style:normal;font-weight:normal;font-size:51.24137878px;line-height:1.25;font-family:sans-serif;letter-spacing:0px;word-spacing:0px;fill:#000000;fill-opacity:1;stroke:none;stroke-width:1.28103447"
       id="text151">
      <path
         d="m 102.09288,259.31683 h -4.648668 v -29.9007 q 0,-3.73041 0.229564,-7.05909 -0.602605,0.60261 -1.348688,1.26261 -0.746082,0.65999 -6.829526,5.59562 l -2.525203,-3.27129 11.105154,-8.57995 h 4.017367 z"
         style="font-style:normal;font-variant:normal;font-weight:normal;font-stretch:normal;font-size:58.76836014px;font-family:'Open Sans';-inkscape-font-specification:'Open Sans';fill:#ffffff;stroke-width:1.28103447"
         id="path1017" />
      <path
         d="m 131.96488,216.76142 q 5.7391,0 9.09647,2.66868 3.35738,2.66869 3.35738,7.37475 0,3.09911 -1.9226,5.65301 -1.9226,2.55389 -6.14084,4.64867 5.1078,2.43911 7.25996,5.13649 2.15216,2.66868 2.15216,6.19822 0,5.22258 -3.64432,8.35039 -3.64433,3.09911 -9.98603,3.09911 -6.71475,0 -10.33038,-2.92694 -3.61563,-2.95563 -3.61563,-8.35038 0,-7.20257 8.78082,-11.21994 -3.95998,-2.23825 -5.68171,-4.82084 -1.72173,-2.61129 -1.72173,-5.82519 0,-4.56258 3.35737,-7.25995 3.38607,-2.72608 9.03908,-2.72608 z m -9.06777,31.96678 q 0,3.44346 2.38172,5.36605 2.41043,1.9226 6.74344,1.9226 4.27563,0 6.65736,-2.00868 2.38172,-2.00869 2.38172,-5.50954 0,-2.78346 -2.23824,-4.93562 -2.23825,-2.18086 -7.80518,-4.21824 -4.27563,1.83651 -6.19822,4.07476 -1.9226,2.20956 -1.9226,5.30867 z m 9.01038,-28.09288 q -3.58693,0 -5.62431,1.72172 -2.03738,1.72173 -2.03738,4.59128 0,2.63999 1.69303,4.53389 1.69303,1.8939 6.25562,3.7878 4.10345,-1.72173 5.79649,-3.70171 1.72173,-1.97999 1.72173,-4.61998 0,-2.89824 -2.09478,-4.59128 -2.06607,-1.72172 -5.7104,-1.72172 z"
         style="font-style:normal;font-variant:normal;font-weight:normal;font-stretch:normal;font-size:58.76836014px;font-family:'Open Sans';-inkscape-font-specification:'Open Sans';fill:#ffffff;stroke-width:1.28103447"
         id="path1019" />
      <path
         d="m 179.51331,238.28304 q 0,10.87559 -3.44346,16.24165 -3.41477,5.36605 -10.47386,5.36605 -6.77213,0 -10.30168,-5.48084 -3.52954,-5.50953 -3.52954,-16.12686 0,-10.96168 3.41476,-16.27034 3.41477,-5.30867 10.41646,-5.30867 6.82953,0 10.35908,5.53823 3.55824,5.53823 3.55824,16.04078 z m -22.9277,0 q 0,9.15386 2.15216,13.3434 2.15216,4.16085 6.85822,4.16085 4.76346,0 6.88692,-4.21824 2.15216,-4.24693 2.15216,-13.28601 0,-9.03908 -2.15216,-13.22862 -2.12346,-4.21824 -6.88692,-4.21824 -4.70606,0 -6.85822,4.16085 -2.15216,4.13215 -2.15216,13.28601 z"
         style="font-style:normal;font-variant:normal;font-weight:normal;font-stretch:normal;font-size:58.76836014px;font-family:'Open Sans';-inkscape-font-specification:'Open Sans';fill:#ffffff;stroke-width:1.28103447"
         id="path1021" />
      <path
         d="m 199.22711,216.76142 q 5.73909,0 9.09647,2.66868 3.35737,2.66869 3.35737,7.37475 0,3.09911 -1.9226,5.65301 -1.9226,2.55389 -6.14083,4.64867 5.10779,2.43911 7.25995,5.13649 2.15217,2.66868 2.15217,6.19822 0,5.22258 -3.64433,8.35039 -3.64433,3.09911 -9.98603,3.09911 -6.71475,0 -10.33038,-2.92694 -3.61563,-2.95563 -3.61563,-8.35038 0,-7.20257 8.78082,-11.21994 -3.95998,-2.23825 -5.68171,-4.82084 -1.72173,-2.61129 -1.72173,-5.82519 0,-4.56258 3.35738,-7.25995 3.38606,-2.72608 9.03908,-2.72608 z m -9.06778,31.96678 q 0,3.44346 2.38173,5.36605 2.41042,1.9226 6.74344,1.9226 4.27562,0 6.65735,-2.00868 2.38173,-2.00869 2.38173,-5.50954 0,-2.78346 -2.23825,-4.93562 -2.23825,-2.18086 -7.80518,-4.21824 -4.27562,1.83651 -6.19822,4.07476 -1.9226,2.20956 -1.9226,5.30867 z m 9.01038,-28.09288 q -3.58693,0 -5.62431,1.72172 -2.03738,1.72173 -2.03738,4.59128 0,2.63999 1.69303,4.53389 1.69304,1.8939 6.25562,3.7878 4.10345,-1.72173 5.79649,-3.70171 1.72173,-1.97999 1.72173,-4.61998 0,-2.89824 -2.09477,-4.59128 -2.06608,-1.72172 -5.71041,-1.72172 z"
         style="font-style:normal;font-variant:normal;font-weight:normal;font-stretch:normal;font-size:58.76836014px;font-family:'Open Sans';-inkscape-font-specification:'Open Sans';fill:#ffffff;stroke-width:1.28103447"
         id="path1023" />
    </g>
    <g
       transform="translate(102.5572,93.9933)"
       id="g968">
      <path
         style="fill:#d5cfdb;fill-opacity:1"
         d="M -2.8263795,187.75235 H 197.4428 l -6.86407,34.32032 H 5.2489906 Z"
         id="rect958"
         inkscape:connector-curvature="0"
         sodipodi:nodetypes="ccccc" />
      <text
         xml:space="preserve"
         style="font-style:normal;font-weight:normal;font-size:40px;line-height:1.25;font-family:sans-serif;letter-spacing:0px;word-spacing:0px;fill:#622f8e;fill-opacity:1;stroke:none"
         x="19.993755"
         y="209.69441"
         id="text962"><tspan
           sodipodi:role="line"
           id="tspan960"
           x="19.993755"
           y="209.69441"
           style="font-size:17.33333397px;fill:#622f8e;fill-opacity:1">Deputada Federal</tspan></text>
    </g>
  </g>
</svg>
